[
  {
    "name": "Portal da UFRN",
    "url": "http://ufrn.br",
    "status": "on"
  },
  {
    "name": "API",
    "url": "https://api.ufrn.br",
    "status": "on"
  },
  {
    "name": "Webmail SINFO",
    "url": "https://mail.ufrn.br",
    "status": "on"
  },
  {
    "name": "Oraculo",
    "url": "https://oraculo.ufrn.br",
    "status": "on"
  }
]